{
    "message": "ok",
    "statusCode": 200,
    "data": {
        "total": 96,
        "per_page": 5,
        "current_page": 1,
        "last_page": 20,
        "next_page_url": "http://www.lar.abc/mobi/blog/list?page=2",
        "prev_page_url": null,
        "from": 1,
        "to": 5,
        "data": [
            {
                "id": 8,
                "title": "12年后再夺金!中国女排大逆转 3-1复仇塞尔维亚",
                "desc": "12年后再夺金!中国女排大逆转 3-1复仇塞尔维亚",
                "view": 9,
                "src": "http://www.lar.abc/uploads//admin/blog/art/img/8e0bb1bb2aef72324b19825377bfbf95_thumb.jpg",
                "author": "网易体育 作者：思嘉",
                "url": "www.baidu.com"
            },
            {
                "id": 9,
                "title": "网站上线啦!!",
                "desc": "网站上线啦!!",
                "view": 12,
                "src": "http://www.lar.abc/uploads//admin/blog/art/img/4a6f9a53795caca93e93922aa0ba13ed_thumb.jpg",
                "author": "demon",
                "url": "www.baidu.com"
            }
        ]
    }
}